<?xml version="1.0" encoding="UTF-8" standalone="no"?>
<!-- Created with Inkscape (http://www.inkscape.org/) -->

<svg
   xmlns:dc="http://purl.org/dc/elements/1.1/"
   xmlns:cc="http://creativecommons.org/ns#"
   xmlns:rdf="http://www.w3.org/1999/02/22-rdf-syntax-ns#"
   xmlns:svg="http://www.w3.org/2000/svg"
   xmlns="http://www.w3.org/2000/svg"
   xmlns:xlink="http://www.w3.org/1999/xlink"
   xmlns:sodipodi="http://sodipodi.sourceforge.net/DTD/sodipodi-0.dtd"
   xmlns:inkscape="http://www.inkscape.org/namespaces/inkscape"
   width="270mm"
   id="svg2"
   height="202.5mm"
   inkscape:version="0.91 r13725"
   version="1.1"
   viewBox="0 0 956.69268 717.51971"
   sodipodi:docname="ET.svg"
   inkscape:export-filename="/home/javi/Documents/Git/surf-simulator/assets/img/project/ET.png"
   inkscape:export-xdpi="90"
   inkscape:export-ydpi="90">
  <defs
     id="defs4" />
  <sodipodi:namedview
     pagecolor="#ffffff"
     inkscape:window-height="995"
     id="base"
     inkscape:pageopacity="0.0"
     borderopacity="1.0"
     inkscape:cx="538.40215"
     inkscape:cy="350.13754"
     bordercolor="#666666"
     inkscape:document-units="px"
     showgrid="false"
     inkscape:pageshadow="2"
     inkscape:window-x="0"
     inkscape:zoom="1.02"
     inkscape:window-y="0"
     inkscape:window-width="1920"
     inkscape:current-layer="layer1"
     inkscape:window-maximized="1" />
  <metadata
     id="metadata7">
    <rdf:RDF>
      <cc:Work
         rdf:about="">
        <dc:format>image/svg+xml</dc:format>
        <dc:type
           rdf:resource="http://purl.org/dc/dcmitype/StillImage" />
        <dc:title />
      </cc:Work>
    </rdf:RDF>
  </metadata>
  <g
     id="layer1"
     transform="translate(0,-334.84252)"
     inkscape:label="Layer 1"
     inkscape:groupmode="layer">
    <image
       y="466.92847"
       width="943"
       id="image4155"
       height="370"
       xlink:href="data:image/png;base64,iVBORw0KGgoAAAANSUhEUgAAA68AAAFyCAYAAAAap+wxAAAABHNCSVQICAgIfAhkiAAAIABJREFU eJzs3XtcVHX+x/H3oBWgxvGadwY1NW+Mm6aVxrC2ZZqJ7XbZtBxqa/uttWK1bVsWuGu1tRXa1rab Fdi9thRT00plMO+WDF7xlkNeKy+Hi0Be4PcHjpEreIHxzAyv5+MxjwbmdM57YEA+8/lebOXl5QKA mvJ4PA7TNA3fx1lZWXFW5gEAADiV0aNHT7Xb7V6rc+D01Lc6AIDgYZqm4fF4HAsWLBj89ddf9z9w 4ECztWvXdigsLIywOhsAAMCZioqKyk9KSppkdQ6cHopXAFU6VqheM2/evGGrV6/uvnPnzsZVHdu8 eXM1a9bs+MfdunU7JxkBAEDd88MPP2jDhg364YcfTnmsYRimw+Hw+D52OBwewzBM330/xkQto3gF 8DMZGRkJH3744Z0LFy4ccLJi9ZJLLpHdbld0dLSaNWum5s2bq3nz5lZEBQAAdUheXp42b95csGjR osObNm1qeuLjDofD43A4PLGxsTm+ApXiNLTYmPMKICMj48Z///vfD3/22Wf9Kn8+MjJSffr0Ubdu 3RQdHa3o6GirIgIAgDooLy9Py5Yt27dy5cp6u3btMio/lpCQkOFwODxxcXFZTqfTbVFEnEMUr0Ad 5fV67c8+++yEt99++5bCwsILfJ+Pjo5Wnz591LfvpeUUqwAA4FwrLi7WokWLixcvXlKyadOm43OS 7Ha71+l0uocPHz4jISEhw8qMsAbFK1DHpKWl3f2f//znweXLl3fxfa558+YaMmRweZ8+l5YzBBgA AFhhw4YN5cuXf7V77ty5bX2fMwzDTEhIyBg7duxkhgCD4hWoI15//fU/JCc/MXHnzl2NpYohwX37 9ikfMmQwHVYAAGCZDRs2lM2cOXvfqlXZF/k+l5CQkDF8+PAZLpcr3cJoCDAUr0AIM03TmDJlyh8n TZr0wK5du6Kkii7rb35zY3nfvn3KIyMjrY4IAADqqNzc3MMzZ87e9/XXq1pLFV3WpKSkSey9iqpQ vAIh6rXXXrsvOTn5yV27dl0o/VS0xsVdxQ89AACwzIYNG8pmzZrz3ddff91G+qloHTt27GTfFjbA yVC8AiEmMzPz6jFj/pC+YUNuG0nq1u2S8ptuGlHWrdsl/LADAADL/PDDXtvs2XN3z5nzWVupYgGm sWPHTna5XOkUrTgdFK9AiPB6vTG33fbbmUuXLusuSc2bN9NNN91YFhc3sMzqbAAAoO46eLBY8+e7 97/zznstJDqtOHsUr0AIeOyxxya9+OKLY4qKiuo3aBCpIUOuLbvuusFlDRowpxUAAFhn1aqc0lde ebVeQUFBhCS5XK705OTkCcxpxdmob3UAAGcvOzu798iRt830DRGOixtYPnr0qKMUrQAAwEoHDxbr ww8//n7u3M9bS5LT6XQnJydPcDqdboujIYjReQWC1KOP/uWfTz/99/ukiiHCY8bcc7Rbt678QAMA AEvl5m768dVX00p37NjZ1DAMMzk5eUJSUtIkq3Mh+FG8AkHG6/XGDBly3aING3JbS9LQodcevemm EXRbAQCApQ4eLNasWZ/t+eij6e2lim5rWlpaIkOEUVsoXoEg8tFHH92emJj4elFR0XnNmzcrHzPm nqPdu3dlQSYAAGCpvLxvy1977a39ubkbW0lSSkpKSnJy8gSrcyG0ULwCQeLee3//3n/+8+qtktS3 76VlY8bcfYRuKwAAsNrixcuL0tLePj8/P7+hw+HwpKWlJTocDo/VuRB6WLAJCHDHhgl/6VuUyeUa eXTo0GuOVjzKm08AAMAaBw8W6/33p+2dO/eL1lLFSsKpqanj2P4G/kLxCgSw+fPnD05ISPikqKjo vBYtmpU//PDYw3Z7eypWAABgqR9+2KvJk189kJu7sbVhGGZqauo4l8uVbnUuhDaGDQMBasqUV8fe c8/vJ0nSZZf9ouy+++4+3KBBJD+wAADAUnl524+mpDxrKygoiGSYMM4lOq9AAPrDH/7vnVde+fdt knT99dccTUwcedjqTAAAAF9/vbrk5ZennFdQUNDA6XS6p0+fPoJhwjhXKF6BAGKapvHb394yd+7c z/tJ0n333X04Pn7AUatzAQAALF68Mv+FF166SKqY35qWlpZodSbULRSvQIAwTdO44orL12zYkNu2 QYNI/fnP9x/q0aNrmcROOAAAwFpvvz3NnDZtZkuJbXBgHYpXIABUFK79123YsLF1TEz7svvu+92h mJj2VK0AAMByU6a8bc6ZM6+1JKWlpSWyMBOsQvEKWMw0TePyy/ttyM3d1DImpn3ZX//6yI8szAQA AALBlCnvHJgzZ14bwzDM6dOnj3A6nW6rM6HuongFLOT1emMGD7522caNm1pQuAIAgEDy2mvv7psz 54t2hmGYmZmZ8awoDKtRvAIW8Xg8va+6auDSwsKiC2Ji2pf97W9//rFBg4hyidoVAABYa8qU9/Z+ +unn7SlcEUjY5xWwgGmaRvfu3fJ27dp9YUxM+7Inn3y4lI4rAAAIBK+++v4Ps2d/bqdwRaCh8wqc Y745rj8Vrn8uoXAFAACB4D//edf89NMvKFwRkChegXPo2HY4a32LM1G4AgCAQPHKK28Vz527oC2F KwJVmNUBgLrCNE3jyiuvyNmwIbcNhSsAAAgkixd/fWDu3AUtpIrtcChcEYjovALnyO9/f/dH69dv aN+gQWT5Y4+NKWnYMLxcYitXAABgrYULVxY/99y/20kVhWtCQkKG1ZmAk6F4Bc6BkSN/O/PDDz8a 1KBBZPlTTz1c3KJF86NWZwIAAPjqq9WHn3vu38c7ri6XK93iSECVGDYM+NmUKa8mvfvu+9dL0lNP PVwcE9OewhUAAFhu27btmjz5jQskKSkpaRKFKwIdW+UAfjR//rzBV1/9qzmSNHbsXSWDBl152OpM AAAABw8W2/70p6cP7dixs6nL5UpPS0tLtDoTcCoMGwb8JDs7+xcjRoz4RJJuuOFXh66++orDEm8W AQAA6z3//OsFO3bsbONwODypqanjrM4DnA46r4Af+PZyzc3d1HLQoCsPJyUlllidCQAAQJJeeeW9 ok8/nd/aMAxz27ZtMYZhmFZnAk4HnVfAD4YMGbw4N3dTyw4d2h29555bi202G+8SAQAAyy1c+FWx r3DNzMyMp3BFMGHBJqCWPfbYX15cunR5twYNIsuffvrhIvZyBQAAgWDdus1lzz77SmtJSk1NHcde rgg2DBsGatGCBfOvGTTo6s8k6emnHy7q2bPLEaszAQAAHDxYbLv77kfPKygojExKSprEPFcEI4pX oJaYpmm0b9/uu8LCovNHjhxWetttN5RanQkAAECS/vGP9AK3e3F7h8Phyc7O7m11HuBsMOcVqCVD hly7pLCw6PyePbscue22G1igCQAABIQ5cxYddLsXtzcMw5w+ffoIq/MAZ4viFagFjz76yEtLl664 pEGDyPInnhhTyAJNAAAgEGzbtqPspZemtpWktLS0RLvd7rU4EnDWWLAJqKHMzAW/evrpZ8ZI0uOP j2GBJgAAEBAOHiy2Pf30qzZJSkpKmpSQkJBhdSagJpjzCtSAaZpGjx7dtu3cudsYOXJYyahRDBcG AACB4e9/f6MkK2tpG+a5IlQwbBiogUcf/fO/du7cbXTo0O7oqFHDSiTeDAIAANZbsWLNkayspW2Y 54pQQvEKnKUFC+Zf88orr/5Wkh58MLFQspVZnQkAAODgwWLb889PbShJycnJE5jnilDBnFfgLJim adxxx+0fStLIkcOKO3Rox36uAAAgIPzzn++XFhQURDqdTndSUtIkq/MAtYXiFTgLf/nLw//ZuXN3 VIcO7Y6MGnVDsdV5AAAAJGnFijVHfcOF09LSEq3OA9Qmhg0DZygzc8Gv/v3vKTdL0kMPjS6yMVoY AAAEgIrhwmmNJIYLIzRRvAJn6PbbR30gSaNGDSvu0KHdYavzAAAASFJ6+uyDBQWFTRkujFBF8Qqc gcce+8uLO3fubtyxY7sjt98+rMjqPAAAAJK0evVm28yZ86IZLoxQxpxX4DR5vd6Yp576+/2SdO+9 t1C4AgCAgPHGGzOOSFJSUtIkhgsjVNF5BU7TbbfdMluSrrnm8tLY2E6HJOa6AgAA682cuejQhg2b 2trtdm9ycvIEq/MA/kLnFTgNr78+ZczSpSsuadgwovzee28utDoPAACAJBUVldjefPOTxpLEcGGE OjqvwCmYpmmMG/fA85J07723FDRsGHnU6kwAAACSlJY2uzQ/v6C50+l0O51Ot9V5AH+i8wqcwrPP Pv1kYWHRBb16dT50zTWXl1idBwAAQJJWr94cNnPmPLtE1xV1A51XoBper9f+9NPP/kGS/u//bi6Q yq2OBAAAIEl6/fUZZZKUkpKSwiJNqAsoXoFqPPron/4tSddcc3lJp05tjlC8AgCAQDB//kpt2LC5 pd1u944dO3ay1XmAc4Fhw0AV3O7MQe+999G1DRtGlN9xx1C2xgEAAAHj7bfnnidJycnJEwzDMK3O A5wLdF6BKjz66CP/lKQbbxxU1LJls8NW5wEAAJCkd9/9XDt27GrqcDg8Lpcr3eo8wLlC8QqcxLRp H996bGucshtvHHTQ6jwAAACSVFRUEvbRR/MaSVJqauo4q/MA5xLFK3ASY8fe/7Ik/eEPNxU0anRB mVRmdSQAAADNnr2kuKCgoCVb46AuYs4rcII33nj93h07djdp2bLp0Wuv7V9sdR4AAABJ2rNnX70p U/7bQaLrirqJzitwguTkx5+SpDvuGFoglhcGAAAB4v33M0skyeVypTscDo/VeYBzjeIVqOSNN177 w44duxtXdF0vZ64rAAAICHv27Ks3c+YCu1SxwrDFcQBLULwClSQnPzFRku64Y2g+TVcAABAo3n9/ wWGpoutqt9u9FscBLEHxChzzxhtTjnddBw/uV0zxCgAAAsGxrmtbia4r6jYWbAKOSU5OnihJo0cP ybc6CwAAgM9772XSdQVE5xWQdHyF4cYtWzY9Mnjw5UVW5wEAAJCkPXv21Z85M5OuKyA6r4AkKTn5 iSclafTooXRdAQBAwHj33flHJbqugETnFdD06dN+vWPHriYVXdfLDkplVkcCAABQUVFJ2MyZbrqu wDF0XlHnPffcM3+VpF//2llodRYAAACfGTOWHJWkhISEDLquAJ1X1HFut9u5ZMmKbg0bRpRdd93l RTabjSWGAQBAQPjww3nNJWns2LGTrc4CBAKKV9Rpr7768p8l6Te/+WVBw4YRR63OAwAAIEmff77y vIKCwkiHw+FxOp1uq/MAgYDiFXWW1+u1v/feR4Ml6brr+hXRdAUAAIFi+vRF9SS6rkBlFK+os8aP /0uqJA0e3K+oZcvGRySKVwAAYL2cnC0XbNiwpaVhGKbL5Uq3Og8QKFiwCXWSaZrGzJmzrpOkxMQh ptV5AAAAfDIyVvwoSUlJSZOszgIEEjqvqJOmTfvotwUFRRc4HBeXtmzZ9JDVeQAAACRpz5799Rcs WNpeYsgwcCI6r6iTUlKS/ypJ113Xn+1xAABAwMjIWFouSS6XK90wDEaHAZXQeUWd43a7ndu372rW sGFE2ZAhlxUy1xUAAASK2bMXsT0OUAU6r6hzpkz518OSdPPNznyrswAAAPjMnbsy3Lc9jsPh8Fid Bwg0FK+oU0zTNN5997/XSQwZBgAAgeWLLzxlEl1XoCoMG0ad8vzzz46XpIEDex1s1YqFmgAAQGDY s2d//RUrVrc1DMNMSEjIsDoPEIgoXlGnpKenJ0rSLbc4TZuNua4AACAwTJu22CZJCQkJGSzUBJwc xSvqDLfb7dyxY3eTVq2aHOndu1MJCzUBAIBAMWvWkuaSNHr06KlWZwECFXNeUWdMmfLKA5I0cGCv IquzAAAA+Hz55drwgoLCSLvd7nU6nW6r8wCBis4r6oxZsz79lSTdfLPTFG1XAAAQIL74YvVhiYWa gFOheEWdkJaWdldBQVH4xRe3+bFVqyYs1AQAAAJCUVFJ2Pz5y2IkyeVypVscBwhoFK+oEz766N07 JWnIkH4FLNQEAAACxeLF686TWKgJOB3MeUXIM03T+PTTeVdI0tChl+VbnQcAAMDns888YZI0fPjw GVZnAQIdxStC3htvTPk/Sbrqqp5FDRtGlFmdBwAAQJJ2795/3vLlq9tJFZ1Xq/MAgY5hwwh5aWlv 3CNJQ4f2N222sKNW5wEAAJCkJUs2MmQYOAMUrwhpXq/XvnZtrr1Ro4ijcXHdCyVqVwAAEBjmzPkq XGJvV+B0MWwYIW3atI9+K1UMGbY6CwAAgM/u3fvPW79+SyvDMEyGDAOnh+IVIS0t7fV7JCkurmeh 1VkAAAB8Fi3aaJOY6wqcCYYNI2T5hgxL0lVX9SqwOA4AAMBxc+Z83UBilWHgTFC8ImRNn/7xLZKv 61rO5q4AACAgHBsy3JIhw8CZoXhFyHrjjdd+L0lxcT0LbDar0wAAAFRYtGj9+RJDhoEzxZxXhKRj Q4ZjJOmqq5jvCgAAAseiRZvCJCkuLi7L6ixAMKF4RUiaPn3aTVLFkOFGjSLYHwcAAASEwsKSesuX r24v0XkFzhTDhhGS5s+fe4MkxcX1ypdsZVbnAQAAkKQvv1wfKVUUroZhmFbnAYIJxStC0uzZXwyQ pEsv7XDQRu0KAAACxOLFm8slVhkGzgbDhhFyMjIyEiSpc+c2pa1aNTlkdR4AAACfefOWdZAYMgyc DYpXhJz58+cmSFJcXA/2dgUAAAEjK2vNhZLkcDg8DBkGzhzFK0LOjBmfDJWkuLie+VZnAQAA8MnJ 2XFEousKnC3mvCKkeL1e+/btu5s1ahRxtGvXNsVW5wEAAPBZteqbCIktcoCzRfGKkDJ9+sc3S5LT 2SNfKrc6DgAAgCRp9+79569fv6W1YRim0+l0W50HCEYMG0ZI8W2Rc+mlnQ5anQUAAMDn66+3hUsS hStw9iheEVJmz553pSTFxfVgvisAAAgYixZttkkMGQZqgmHDCBlut9spSZ07tylp1CjyiMVxAAAA jluxYkMLicWagJqgeEXIyMycN1iS+vTpWGSzlTPhFQAABIRNm3ZGFBQURtrtdq/dbvdanQcIVgwb RshYsOCL6yTp0ks7FVqdBQAAwCcrKzdCousK1BTFK0LGokUreknSpZd2LLI6CwAAgM+WLXuPSlJs bGyO1VmAYEbxipDw8/muEUctjgMAAHDcypXrW0qsNAzUFHNeERIWLPhiiCT16dOx0GZTmdV5AAAA JGnjxp2R+fnMdwVqA8UrQsKCBfOulSqKV4m1mgAAQGBYtYr9XYHawrBhhITFi4/Pd2WxJgAAEDCy s7ezvytQSyheEfR88127dGldzHxXAAAQSHz7u9J5BWqOYcMIetnZq/pIUufObYrFmGEAABAgdu3a f35BQVGkYRgm812BmqN4RdBbsODzodLxxZooXgEAQEBYteqbhhJdV6C2MGwYQS8nZ3UPSerSpU2x 1VkAAAB8tmzZd0SSHA6Hx+osQCigeEVQM03T2L59d7NGjSKOdunSmuIVAAAEjM2b95wvsVgTUFso XhHUKi/WZHEUAACAn1m6dLVdYtgwUFuY84qgtmrVigGS1Ldvx4KwsPIyq/MAAABI0ldfbb1QYsgw UJvovCKoZWbOv1qSunRpfdDqLAAAAD4bN+4OlyhegdpE8YqgtmjRilhJ6tOnY4HVWQAAAHy2bNlX JkmxsbE5VmcBQgXFK4KW1+u1S1KjRhFHGzWKOGpxHAAAgOM2btwVKdF5BWoTxSuClsfjcUgMGQYA AIFn3bqtrSQWawJqEws2IWhlZ3/VT6pYrMlmE4s1AQCAgMBiTYB/0HlF0Fq1amV/ic4rAAAILLm5 DBkG/IHiFUErJ2dtd0lq06bJj1ZnAQAA8Pnuu4NHJMlut3stjgKEFIpXBCXTNI3t23c1l+i8AgCA wLJx455wSYqLi8uyOgsQSpjziqDkW6ypb9+OBWFh5eVW5wEAAPDZsMHbVKLzCtQ2ilcEJY8nu7ck tWnTpFSyUbwCAICAUFhYUj8/vyhSongFahvDhhGUvvlmc3dJat26MfNdAQBAwMjN3dVAYoscwB8o XhGUPJ5Vv5Ckvn075ludBQAAwGfjxt0REisNA/7AsGEEpby8b9tKUps2jUttjBoGAAABYvPmvZKk 6OjoPIujACGH4hVB6dtvdzeXpDZtGpdYnQUAAMBn1y6zvkTnFfAHhg0j6Ljdbqckde3KFjkAACCw rF/vbSGxWBPgDxSvCDqmaRqS1KhRxBGrswAAAFSWn18UIVG8Av5A8Yqg4/Gs6itJl13WgcWaAABA wFi5cmuUxJBhwF+Y84qgs2rVyn5SxXxXm62c1ZoAAEBAsNkq/msYhmltEiA0Ubwi6Bw4sL+ZJLVp 06RUYqlhAAAQGFau3NZQYo9XwF8YNoygs2bNhoslqWvX1kVWZwEAAPApKjp6yOoMQCijeEXQyc8v jJRYsAkAAASWjRt3R0pSXFxcltVZgFDEsGEEFY/H45Aquq42RgwDAIAAsmPHvoYSc14Bf6F4RVDx bZNz4YURR2w2W5nVeQAAAHy2b9/TRGK1YcBfGDaMoOLrvF5yCfNdAQBA4CgsLKkv0XUF/IniFUHl wIG9F0lSo0bhzHcFAAABY8OGXQ0luq6APzFsGEElO/vrPlLFHq8Sc14BAACAuoLiFUHFNH17vDYu pXgFAACBYsWKrY0lOq+AP1G8IqisXl2xx2vbtk2LbbYwFmwCAAABISzsvBKJOa+APzHnFUElP7+w geTrvAIAAASG3Nw9EZIUHR2dZ3UWIFRRvAIAAAA1VFj4Y5gk2e12r8VRgJDFsGEEjUrb5BRKjBgG AACBo7CwtJ7EsGHAnyheETRM0zQk6cILw4/YbDZWawIAAAFj7dqtbSQWbAL8ieIVwYriFQAAAKhD mPOKoJGVlRUnSZdd1vGA1VkAAAB8du48ECExZBjwN1t5OQ2sc8Xr9dqnTp06OiMjI8E3fxMAAABA cHE6ne7hw4fPcLlc6bxpce5QvJ4DpmkaEyZMSJ40aVKS1VkAAAAA1A7DMMykpKRJycnJE6zOUhdQ vPqZ1+u1JyQkzMjJyelldRYAAAAAtc/hcHgyMzPj6cL6F8WrH5mmadjtMd78fDPK97mYzj10xS+H 6ZLYflZG+1/l5bJV81qwlZfLVs0aSbay6reuCavu8dO4dnXrM1V77lNks53y2n5+XtU8HnaKa9fs eVV/7Zo875o/r6PVntuq53VaPyM1uHaNvp+n+vmr7tpB/Dr16/M61e+Vaq5d49epH7+fNfp9qcB9 XjX9GanR97Mm//7V8Gt66u9nNb9P/X3tUH2d1vD76a/X0qn+VvL332ln/zeiTYG2BqdHUrykyhWo U9JYSQnHPjYlZUiaKsld6TgKWP9jwSY/MU3TcDqdWb7CNTyigX59xx9117iJgVe4AgAAAHWcKSlR PxWuhqTpkjL1U+Hq+7zr2OdTK33e4/E4RowYMd3/Sesuilc/mTBhQnLlocJ3PTBRvS//pZWRAAAA AFQhURWdV6miQD2xaD2ZJElplT52u93OCRMmJPshHkTx6hdut9tZeXGmX9/xR7VqG2NlJAAAAABV cKtiKLBPmqTT3RrEJSml0scpKSkpXq/XXhu58HMhU7xu2H3QeehIeYTVOSQpKSlpku/+JbH96LgC AAAAASyx0v0knbrjeqJkVcyNPX6+xMS0Kg4NHUeP1tPw4TP0zjsjVVZ2TurKkChedxz4scff53z7 +Z8+2pK7dGv+b8srZn9bIj093ZWTkxMrHZvnOvqPVkUBAAAAcArpkrzH7huqKETPxonDh91ut/Ps UwWBl18eo08+uUGjRr2tPn2+0jl4vkFfvJZLtrTFu185WlZ+3r6iw+1fztz57uPTv/l6w+6DTivy TJ06dbTv/hW/HKbwiAZWxAAAAABwGiZXup+sigL2bNhVMYTYp3JdEHJ27Wqtxx//2/GPs7N7Kz4+ U0OGfKr167v567JBX7x+ucl0bdxTPKDy57z7Sns/OTsv87nPvp210/zRb1+8E3m9Xnvld1h+wXBh AAAAIGB59PNFmlw1PF/lrm16errLNM2zrYUD2wMPvKCCggv/5/Nz5lyn2Ngc3X33FO3e3aq2Lxv0 xevSrQW3VvWYZ3vR0EenfZPzxqLd/zGLj9T6F+9EGRkZx4fHXxLbT0bTFv6+JAAAAICzNLXS/QSd fdfVx66fL/RUuT4IKddfP0vt23970seOHKmv1177nTp33qSUlBQVFTWsrcsGffH68OD2190b12Z0 04bnnfSLd7SsvP6C3AP3PPTfLZsysn94vPRwWa198U5UeWhAN/ZyBQAAAAJa5RWGh9fSOSuPFZ4x Y0ZtnTawjBr1tnJzu+qZZ/4swzBPekxRUUNNmJCszp03acqUu3XkSP2aXtZWXl5e03MEhENHyiM+ W7fvjzNz9j1SfOholW+aGJH1d9/Up8X4AZ2i3qwXZjtSmxlsNtvxL+b4F94Jrvmu5eWyVfNasJWX y6ZqHi8rq/b0YdU9fhrXVjXXrvbcp8hmO+W1/fy8qnk87BTXrtnzqv7aNXneNX9eR6s9t1XP67R+ Rmpw7Rp9P0/181fdtYP4derX53Wq3yvVXLvGr1M/fj9r9PtSgfu8avozUqPvZ03+/avh1/TU389q fp/6+9qh+jqt4ffTX6+lU/2t5O+/087+b0Sbqsvtb15Jvs0sDUkH/HFewzAPHDjQuJZOHZj27m2m J598TP/61x906ND5VR7Xrdt6/eMff9KQIZ+e7aWCvvPqc359W8mw2GbPPH9zp4uv7d7kxfphtkMn O84sPtJqysJdrz867Zuc1TuKBtfW9SvPdW3VNia4ClcAAACgjvFUun+6e7qeDvuxmySZpml4PJ7a PH3gadZsr1JTx2nduu66+eYPVamh9zPr13fT0KGzFR+fqezs3mdzqZBceMGyAAAgAElEQVQpXn0a hdfbe/vlLcc+85uO3fvFXPhfWxVv5+w0f+z27Nxv5zw1O2+Bd1/pWX3xKsvKyorz3Y/p3KOmpwMA AADgRzmV7jtr+dyVq9WQL159OnXaog8+uEVLllyhgQO/rPI4t9upPn2+0siR7+jbb9ufySVCrnj1 uejC87fcP6jtzck3xFzR+aLIxVUdt373wfjHM7756hX3zrf2FR0+oy9eZV6v1+6736ptTDVHAgAA ALCau9L92Fo+d+VqNS8vL7qWTx/Y+vdfpoULr9K0aTeqS5eNJz2mrCxM7757m7p2zdXDDz+r01yV OWSLV59OLSKWPTHMPiDp6nY3tow6f9PJjikvV9jiLfmj/vTRltwPVn7/dHVzZqtSuXhllWEAAAAg eNT2fjaVi+HK0wvrlBEjpmvt2h56+eUxatHi+5MeU1ISoX/840+6+OLNmjx5bLVzZnXCgk0bdh90 bthdHFfN8QHrqs7G1GYNz/NWd8zRsvL6mbnmPR+v+n5CYenRZlUd1yi83t4bf9F8QnzXxq9WNXf2 RPHx8Zm+F+aYx1KDr/vKgk1VPM6CTSfNxoJNZ5GNBZtOdm4WbDrJ4yzY9L9YsOkszs2CTSfPxYJN Z3ruUF6wyVbpfm2ncEuKP3bf6XS6MzMz46s8eMKEZKWkpNRyhHMjMzNeTqf7lMcVFTXU3//+iF54 4QGVlERUeVynTlv09NN/0a9//fHJ5s7+bLniDbuL46at+iHlzFNb75JWkVmnKl7rhdmOXN2t8b8G XBz15sycvY/MWbvvgUNHyv/ni1dYerTZ1CV7/jl37f6xv73soocvtTfKqGrurM+JCzYBAAAAACQ1 bFikiRPHa8yYlzV+/ESlp7tUVva/o4C3bOmkm276r/r3X6bU1HHq339Z5YdDftjwyYSfF1Z0U58W 45+/+eJOcZ2NN2w2nfQtoe8KDnWaNG/7tAmfbFuy5fuS/uc6JwAAAIDg46x0v84s2HQ6WrXarddf v0sLF16lyMjiKo9btqy/Lr98qf7852cqf7pOFq8+F9S3FTe8oN7+Uw0NLiw92iy/5EjLc5ULAAAA QGgwT3Mxojrhxx8v0PPPP6gbbvhExcWRVR7XvPkPevnlMXryyccqf7p+VceHssNHy8O/WL9/zAzP 3scO/ni0yk2DG4XX2/vrX7RIju9qvFovzHbkXGYEAAAAEJzMSvcNwzCrPLCuKCsL0zvvjNT48ROr 3R4nIqJEDzzwgh555O9q2LDoxIfrVPFaXq6wxVvzR/73q+8nVrctzvn1bSXX9Wj6wrDYZs+EnxdW eC4zAgAAAAhunkr3HQ6Hp8oD64K5cwfr0UefUnZ27yqPCQsrk8uVrokTx6tVq91VHfaz4vWSVpFZ N/6ieUrtJT13mjc631vd46t3FA3+cOX3T3n3lVb5RbPZVHbVxUb6b/q0eLxxZP1dZ3J9p9Pp9i3a tG3TWsV07nEm/zsAAACAuig5eYKSkydYHaPWZWf31sMPP6t5866u9rjBg+fq+ecfVLdu6091yhOK 1wbuS1o1cNcsZWDx7ivt/d7y7/6xbtfBQdUd16ttw7m39bvoobaNL1h3rrIBAAAAsIZTFVva6Nh/ nbV47jo9bNjrtevRR5/SBx/cctIVhX16987W888/qPj4zNM9dcgOG/6h8HDMh199/+Syrfm3lv98 G6efsTcNz76t30UPdWvdYEFNrme3272++7t3bKPzCgAAAASJ2q4ucyrdrzPDhvfubaann/6LXnrp Ph06dH6Vx7Vv/63+/vdHdMstHygsrPpNiE8QcsVrYenRZp949j76xfr9Y46UlVf5RWva8Lxvb+nb 4i+Xd4h6v6qtcs5EbGzs8dfonh3bano6AAAAAH7k1E+d1xxJCbV4bnel+5XrhJBUUhKhyZPH6pln /qzqVlY2DFPjx0/Uffe9pAsu+PFsLhUyxeuhI+URc9ftS5qVs+/h4kNHq/yiRZ5fz0zo3Wzi1Zc0 +df59W0ltXX9yu+o7N5O8QoAAAAEsthK992Skmvx3HViwaaysjClp7uUkpKi7dvbVXnc+ecf0v33 /1OPPvqUmjTZX5NLBn3xWl6usIWbTdfHX/8wYf/Bw22rOq5+mO3QNd2b/PMGR7OnG15Qb19t53A6 nW7f/d07tqm05KDCIxrU9mUAAAAA1AJnpfvuWjyvRz8NQzYMw6w8vTBkfPrpED388LNat657lcfY bOW69db39dRTj6qWvgZVT6ANEhNne91TFu56varC1SaVX94x6r1/3NSp6239LnrIH4WrT+UCdoNn ub8uAwAAAKCGDEmOSh9n1NJ53ZXuV64PQsqkSUnVFq5Op1srV/bVu+/eVluFqxQCxeuVnaLeqeqx S1o1cE8YHtNvTHyb25o3Os/vY3mHDx8+w3d/1bIarf8EAAAAwM+cle7PqOqgMzTVZiv33a9cH4SU F1/840nnrXbrtl6zZl2vzMx4XXrp17V92aAvXuO7NJ4S0yziq8qfa2NcsP7Ba9oNe2xodHyH5hEr z1WWhISE42/YbNu0Vua+78/VpQEAAACcobGV7qer5qsOuyV5ysttUsWQYZfLlV7DUwamrl1zNW5c 6vGPW7Xardde+51ycmI1dOhsf1026ItXm01ldw5o+X82m8qMyPq7fzew9d1P3dghtnf7RrPOdRa7 3e6tXMAuWTDzXEcAAAAAcJrs+nn3dXINzze10v3KdUFIGj9+orp1W6+JE8dr06bOuuuu11W//hF/ XtJWXl5+6qOCwKq8whu6tW6wIPy8sCIrc7jdbmd8pY12H5r4qoymLayMdHrKy2Wr5rVgKy+XTdU8 Xlb9bkNh1T1+GtdWNdeu9tynyGY75bX9/LyqeTzsFNeu2fOq/to1ed41f15Hqz23Vc/rtH5GanDt Gn0/T/XzV921g/h16tfndarfK9Vcu8avUz9+P2v0+1KB+7xq+jNSo+9nTf79q+HX9NTfz2p+n/r7 2qH6Oq3h99Nfr6VT/a3k77/Tzv5vRJuqy32upEtKPHbfkJStiqL2TLklxVf6eNu2bTEhuVhTZWVl YWe6V2tNBH3n1ecX0Y0+sbpwlSomZVeemP3xmy9amAYAAABAdVz6aeEmU9K4szzPuEpFnMvlSg/5 wlXSuSxcpRAqXgNJamrq8df8tk1rtWDW+1bGAQAAAFCN1Er3MyRNOsP/P1GSp6wsTKqY65qcnDyh trLhJxSvfuBwODwpKSkpvo8XzH5f2UtZfRgAAAAIRE5JSZU+HqeK4cSnI/2EY1NTU8fVia6rBShe /SQ5OXnCicOH6cACAAAAgSlVP9/3NVHVd2B9Q4wTK33O5XKlh+wKwwEgZBZsCkSmaRrx8fGZHo/n +M9B46YtdPkvhymmcw+1ahtjZbyfY8GmKh5nwaaTZmPBprPIxoJNJzs3Czad5HEWbPpfLNh0Fudm waaT52LBpjM9d11YsKkyUxWLLnkqfc4uKVkVha3j2GNuSZPDwsq8x4YKSxWjL7Ozs3ufs7B1EMWr n5mmaYwYMWK62+12Wp0FAAAAQO1zuVzpqamp4wzDqOlWsagGw4b9zDAMMzMzM54XMwAAABBaDMMw p0+fPiItLS2Rv/X9j87rOWSappGRkZEwY8aM4V6v1155ODEAAACAwOdwODx2u907fPjwGcxvPbco XhE0bDZbuSTt3PkMK18BAICAcdNNaVcsWZLbPjMzM77ygp0Aald9qwMAZ87GOy4AACCAlNWTKkbZ WZ0ECGUUrwgavXpdsmn16g2d16/f2bh799YHrM4DAAAgSZdfbt+7ZMmmNjk5ObEJCQkZVucBQhUL NiFoGEZUviQVFJSeZ3UWAACAn5TXszoBUBdQvCJo2Gxh1W9SBgAAACBkMWwYQSTsSMV/beWSjUIW AAAEhO7dW++TJLfb7UxOTp5gdR4gVFG8Img4nb9ckJW16MqlS7dedMUVMd9ZnQcAAECSoqLCD1ud AagLGDaMoGGzhR21OgMAAAAAa1C8Iujk55ewYBMAAAgY7do1LpIkj8fjsDoLEMoYNoygERcXlyVJ 69btaiyJvV4BAEBA8BWv7PMK+BfFK4KUjeIVAAAAqEMoXhE0DMMwJSk/v/R8Gq8AACCQ9Oxp37Vm jbe1x+NxOBwOj9V5gFDEnFcEDd8/BMeGDQMAAASMCy+84LDE0GHAnyheAQAAgBpq29YokSSv12u3 OAoQshg2jKASFXVhYX5+QaMdO8xI3+IIAAAAVmvX7sIfJSkvLy/a6ixAqKLziqDicPRYJ0nbtx9o aHUWAACAEzFsGPAfOq8IKobRdK8kbd++v6EUY3UcAAAASdIVV3TYIymWvV4B/6HziqDSu/elX0l0 XgEAAIC6huIVQSUqKipfkrZv39/A6iwAAAA+PXq02i9JdF4B/2HYMIKKb7uc7dsPNLTZbGVW5wEA AJCkqKjIUok5r4A/UbwiqBiGYUpSQUHp+VK51XEAAACOa9+++f5vv/2hicfjcfjecAdQexg2jKDi +4dg7dpdTazOAgAAUFm7dk2KJLqvgL9QvCLoGEajQknKzy853+osAAAAPt27tyiQpKysrDirswCh iGHDCDqxsT3XZWUt6b9u3Z7Gx5alBwAAsFxUVPhhqzMAoYziFUHHbu+4JStrSf/t2/c3tNk6MPEV AAAEhCuu6Lhb+qK32+12JicnT7A6DxBqGDaMoBMT03GLJG3ffqCR1VkAAAB8oqLCD0nMeQX8heIV QSc2NjZHkpYs2drS6iwAAAA+PXq03iex1yvgLxSvCDp2u90rSfn5pSzYBAAAAkpUVIMSSfJ6vXaL owAhhzmvCDqVtstpKqnM4jgAAADH9ezZ9vtFizZGe71eu+8NdwC1g+IVQSk6uu2uvLwdrdet29XU N0QHAADAat27t8hftGijPB6Pw+l0uq3OA4QShg0jKNnt9m0SQ4cBAEBgadeu8UFJysnJibU6CxBq KF4RlHr3vvQrSVqyZGsrq7MAAAD4+EaEMecVqH0MG0ZQio6umEPy7bcHGkk29noFAAABoUeP1nsl ye12Oy2OAoQcilcEJd+iTdu3728YFlZO8QoAAAJC48bhP0ZFNSjJzz8YwaJNQO1i2DCCkm8BhMWL v2ltcRQAAICf6dmzzfcSQ4eB2kbxiqAVHd12p3R8yxwAAICA0KPHRfmSlJWVFWd1FiCUULwiaDkc vbMlac2aXc2szgIAAODTo0er/RKdV6C2MecVQat370u/mjFj5vXbtx9oINnKrM4DAAAgSe3bN8mX JI/H47A6CxBK6LwiaMXGxuZI0qJF37SxOgsAAIDPlVd23CVRvAK1jeIVQcu34jBzXgEAQKDp2bP9 boktc4DaRPGKoGW3272GcWFhfn7JBfn5JRdYnQcAAMDHt2gT3Veg9lC8Iqj5hg6zZQ4AAAgkPXq0 2idJOTk5sVZnAUIFCzYhqMXHD5qXlfXlgLVrdzYdOrT7VqvzAAAASNKAAR13SHRegdpE5xVBjc4r AAAIRD17tt4rVRSvpmkaVucBQgHFK4Ka0+l0S9KiRVtZcRgAAASUAQO6eCW6r0BtoXhFUDMMw4yO brdDktas2dXM6jwAAAA+PXq0yJekrKysOKuzAKGAOa8Iek7nLxdMnTr1jrVrdzXt1av1D1bnAQAA kKSePSv+LqHzCtQOOq8Ieg6HI1uSFi/e2kZSOTdu3Lhx48aNWyDcBgzouFNir1egtlC8Iug5HA6P JK1Zs6u51VkAAAB82rdvXNC+ffP9pmkadF+BmqN4RdDzLdq0Zs2uZvn5JRdYHAcAAOC4nj1b7pcY OgzUBopXhIS4uIGLJGnRom9YdRgAAASMK6+M2S2xaBNQG1iwCSEhPn7QvKysLwcsXry19fXX99hi dR4AAABJGjiw03aJea9AbaDzipAQFxeXJUmLFm1ta3UWAAAAn549W/8QFdWg2Ov12r1er93qPEAw o3hFSKg077U5814BAEAgYdVhoHZQvCJkOJ1XfSnRfQUAAIFlwADmvQK1gTmvCBlO5y/nu90LBy5a tLXN0KHdmfcKAAACwoABHZj3CtQCileEjMrzXm02W7nVeQAAACSpV68230dFNSjxzXu12+1eqzMB wYhhwwgZzHsFAACBaujQ7lslKSMjI8HqLECwonhFSBk+/IZPJGn27HUdrc4CAADgM3Bgh50S816B mqB4RUhxOuMzJenLL7e2szoLAACAz4ABHXdIzHsFasJWXs7UQIQOr9drj4mJ2RYVFfHjt99OfMnq PAAAAD4DB07+7erV37bOzMyM9013AnD66LwipNjtdq/d3n57fn7JBYsW0X0FAACB48or7XskacaM GcOtzgIEI4pXhJyEhBs/lqRZs9Z2sjoLAACAz8CBHdkyB6gBileEnJ+2zNnS1uosAAAAPkOH9tgi SR6Px+H1eu0WxwGCDvu8IuQkJCRkGMaFhWvW7Gqxffv+C9u3b1xgdSYAAABJuv76nptnzVpzsdvt drpcrnSr8wDBhOIVISkuzpk5Y8YnN3z55da2I0f2XWt1HgAAAEkaOrT7llmz1lw8Y8aM4RSvwJlh 2DBCUkLCiOmSNHs2814BAEDguP76HpslKSMjI8E0TcPqPEAwoXhFSPItPz9r1tqL8/NLLrA4DgAA gCQpKirix+uv77VRqihgrc4DBBOGDSMk2e12r8MRu9rjyek1e/baixk6DAAAAsXAgTE7Z81a3YWh w8CZofOKkDV6tCtNOr5lTjk3bty4cePGjVsg3HxDh9kyBzgztvLycqszAH7h9XrtMTEx2yRpx44n J0VFRfxodSYAAABJuvLK1DtWr97eavr06SMSEhIyrM4DBAM6rwhZvqHDkjRr1trOVucBAADwGTny 0vWSNGPGjOFWZwGCBcUrQtpPQ4fXXGx1FgAAAJ/Kqw5bnQUIFgwbRkjzDR2Oior4cceOv02yOg8A AIDPlVdOGr169Y6WaWlpiSzcBJwaqw0jpFUMHe612uNZ3evdd7/uPnLkZautzgQAACBJI0f2WbN6 9Y6WrDoMnB6GDSPkjR6dmCZJM2cy7xUAAASOYcN6bpIqhg6bpmlYnQcIdBSvCHm+dzJnzVrTOT+/ JNziOAAAAJKk9u2b5F9/fa9cibmvwOmol5KSYnUGwK/Cw8NLc3I8vXNzN3a96KJGRZddFr3L6kwA AACS9OOPh8+bNWttZ5vNpltvvfUDq/MAgYwFm1AnpKenuxITE9N69Wrz3ZIlD71mdR4AAABJys8v CW/T5tEHJWnbtm0xdrvda3EkIGBRvKLOaNw4Kt80Cy5cv/6Jf7Zv3yTf6jwAAACSdOutb/xm1qzV XVNTU8clJSWxOwJQBea8os5ISLhxmiS9/HJWP6uzAAAA+Iwa1XeNJE2ePHms1VmAQEbnFXWG2+12 xsfHZ0ZHNzHXrXv8JavzAAAA+HTv/uQf8vL2NsnMzIx3Op1uq/MAgYh9XlFnOJ1Ot93e/luv99v2 s2at6TJsWM+NVmcCAACQpFGjLl375JOfXTV16tTRFK/AydF5RZ0yadKkpHHjxqUOG9Zz4/vv38WK fgAAICDk5e03unX76x8l6cCBA40NwzCtzgQEGua8ok7x7fk6c+aaLnl5+9kMHAAABITo6CbmsGEV e76mp6e7LI4DBCSKV9QphmGYLtfoqRILNwEAgMAycmTfHImFm4CqMGwYdY5v4aaoqIjS3bufetbq PAAAAD6XXPLkfSzcBJwcnVfUOU6n0+1wxK7Ozy8Jf/vtFbFW5wEAAPAZNqz7ZkmaOnXqaKuzAIGG zivqpPT0dFdiYmLaVVd18s6de3+61XkAAACkioWbLrlkQpIkbdu2LcZut3stjgQEDDqvqJMSEhIy DCMqf+HCLfbVq3e2tDoPAACAVLFw06hR/TwS3VfgRPVSUlKszgCcc+Hh4aXffffdRcuWLetfWnq4 /rBhPXOtzgQAACBJhhFR+vbbKxwej8fxyCOPPGN1HiBQMGwYdZbX67XHxMRsk6Tc3CcmRUc3YT81 AAAQEPr1e+73q1fvaJWWlpbo2+oPqOsoXlGnJSYmpqWnp7vuuy9u2T/+ceMcq/MAAABI0ltvrXDc c887I+x2u3fbtm0xVucBAgHFK+o0j8fj6N27d3ZUVETpxo0pL0RFRZRanQkAAECSunb9axLb5gA/ YcEm1GkOh8PjdMZl5eeXhL/0kvtyq/MAAAD43H573xxJmjBhQrLVWYBAQOcVdZ7b7XbGx8dnRkc3 MXNzk1+wOg8AAIAk5eeXhHft+tck0yyOZNscgM4rIKfT6bbbo/Py8vYbb721orfVeQAAACQpKiqi 9L774pZLdF8Bic4rIElKT093JSYmpkVHNzmQm5vyvNV5AAAApIrua8uWfx4vSXRfUdfReQUkuVyu 9GPd18ZvvbWc7isAAAgIUVERpbff3m+VRPcVoPMKHFO5+7pxI91XAAAQGPLy9htduqQ8JNF9Rd1G 5xU4hu4rAAAIRNHRTUy6rwCdV+BnTui+Pmd1HgAAAEnKy9vfmO4r6jqKV+AEMTF2r9ebFz1lyqiP fO9yAgAAWO3uu9/+zVtvLf+Fy+VKT0tLS7Q6D3CuMWwYOEFyckqKJE2c+Okgi6MAAAAcN378kPmG EVmcnp7ucrvdTqvzAOdavZSKv9MBHONwODxTp6Yn5uXtaWkYEaWXXWbfbnUmAAAAw4goLS09fN7C hVs65OXl2V0u11SrMwHnEp1X4CTS0tJdkjRx4pxB+fkl4RbHAQAAkCTdf79zsWFElrjdbifdV9Q1 zHkFqhAfH5/pdrud48cPmTd+/JB5VucBAACQpJdeyrzyoYc+Hma3273btm2LsToPcK7QeQWqkJqa Ok6SJk789Oq8vP2Nrc4DAAAgSffdF784Orrpfq/Xa09PrxgtBtQFdF6BaiQmJqalp6e7br+9/9ev vTbqv1bnAQAAkKS33lp+6e9+99ZNdrvdm52d3dswDNPqTIC/sWATUA2Hw5EzdWp64ooVW2Pi4jp9 Ex3d5IDVmQAAAGJj2+xeuHBLh5ycb2IiIiJKnU5nltWZAH9j2DBQDbvd7k1KGpcqSX/725yrrc4D AADg8/jj182TpJSUlBSv12u3OA7gdwwbBk7BNE0jJibGa5pm1HPP/eaT+++PX2R1JgAAAEn63e/e uvmtt5b1cTqd7szMzHir8wD+ROcVOAXDMMy0tDSXJE2cOPtXplkSYXEkAAAASdJzz/1mpm/rnIyM jASr8wD+xJxX4DR07do1Nysry5mbu+Xi774raHTDDb3WWZ0JAAAgPLz+kfDw+kc+/3xDl+XLl/d3 uVxTw8PDS63OBfgDnVfgNKWlpSUaRlT+W28t67Nw4eYOVucBAACQpPvvj18UG9t2l9frtU+ePHms 1XkAf2HOK3AGJkyYkJySkpISHd30wObNf33K6jwAAACSlJW1ueOvfjXpXknKzs7u7XA4PFZnAmob xStwhmJiYrZ5vV77448P/fzxx4d+bnUeAAAASXrwwY+G//OfCwY6HA5PdnZ2b6vzALWNOa/AGarY +3Wqa+HCzR1vuKHX2pYtLyy0OhMAAEC/fjHffvjh146NG7fFGIaR379//2VWZwJqE3NegTPkdDrd SUlJkyTpd79761ar8wAAAEiSYUSUvPba7R9IFVOd2PsVoYbiFTgLycnJE+x2uzcnZ0frv/3t02us zgMAACBJcXEXb73jjv4rTdM0EhMT06zOA9Qm5rwCZ8ntdjvj4+MzJWnlyseej41tu9PqTAAAAKZZ EtG58/jxplkckZqaOs43YgwIdsx5Bc6S3W735ufnG8uWLeu/YsW26HvuGbjU6kwAAADh4fWPdOly 0fcffvh17+XLl/cfPHjwZy1bttxjdS6gpui8AjVgmqYRH+90ezw5sU88MfSzxx8f+pnVmQAAACTp rrve/O2bby7ry+rDCBXMeQVqwDAMMy0t3SVJf/3r7GuzsjZ1sjgSAACAJOn552/KiI5uut/j8TjG jRuXanUeoKbovAK1YMKECckpKSkphhFRsnnzk38zjIgSqzMBAADk5Oxo06fPkw9J0vTp00ckJCRk WJ0JOFsUr0AtiY+Pz3S73c64uM5b5s174CWr8wAAAEjSiy8uiHvwwQ9HGIZhZmdn97bb7V6rMwFn g+IVqCWmaRoxMTHbTNM0/vjHX2Y9//xN063OBAAAIEm//vW/7/rkk5yezH9FMGPOK1BLDMMwp0+f PkKqeIfzk09yelqdCQAAQJJef330u775r+z/imBF8QrUIqfT6U5NTR0nSXfdNfW2vLx9TazOBAAA YBgRJR9/fO/rkpSenu5KT69YcBIIJgwbBvxgxIgR0zMyMhJiY9vtnDfvgRcNI5IFnAAAgOXefHNp v7vuSh8pSdnZ2b0dDofH6kzA6aJ4BfygYv/X+EyPx+O44QbH6o8/vvc1qzMBAABI0oMP/vfGF1+c 72QBJwQbilfAT7xer713797ZFQs4DXK/8MJN06zOBAAAIEmDBr3wx6ysTZ0cDocnMzMz3jAM0+pM wKkw5xXwE7vd7s3MzIyXpBdfnO98882l/azOBAAAIEkff/x/U2Jj2+3weDyOcePGpVqdBzgdFK+A HzkcDk9aWlqiJN1559SROTk72lidCQAAwDAiSt54Y/Q7hhFZkp6e7mIFYgQDhg0D58C4ceNSJ02a lGQYkSXz5z84OTa23Q6rMwEAAGRlbbp40KDnxkpSamrquKSkpElWZwKqUi8lJcXqDEDIGzx48Gd5 eXn2ZctW9v3ww68uvfbabhtatrywwOpcAACgbrPbm+6325vtmzHDE/vZZ58NttvteaxAjEBF5xU4 h+Lj4zPdbrfTMCJLtmx58gm20AEAAIHgzTeX9rvzzvTbJSktLS3R5XKlWxwJ+B/MeQXOoenTp49w OBwe0yyOGDTohbGmWRxhdSYAAIA77rh8+RNPDPtUqpju5PF4HIsRotQAAAaFSURBVFZnAk5E5xU4 xyrvARsb227H/PkPTqIDCwAAAsFdd6XfPnXqkv6GYZiZmZnxDCFGIKF4BSxwYgG7YMFDqRSwAAAg ENx5Z9odFLAIRBSvgEX+t4B9kAIWAAAEhDvvTKeARcBhzitgkcr/GOTkbG/7y18+P445sAAAIBC8 8YbrzdGjr1jme7M9PT3dZXUmgM4rYLETO7DTpv3hP3Z7031W5wIAAPB1YCVWIYb1KF6BAFC5gDWM yOIFC/70Qmxsux1W5wIAALjzzrTRU6cuvlyigIW16qWkpFidAajzwsPDS2+99dYPPvvss8Fe7/Z2 H3ywsk/Xri33dO3a8jurswEAgLpt+HBHjs0mZWVt6jxjxoyE/Px8Y/DgwZ9ZnQt1D8UrECB8Bex3 333XctmylX0/+GBlX7u92T6Hgw4sAPx/e3fwGkcZxnH82YoQVqEjrqBC0qGHJoilb3KQYorzJlbp yZ30YnvanVtQYXf1D9jMVQ+zC2LJpTt7sr00sx6tNbPS1oiQzmKRtEKZNiAFE5yALoJoPcTFWBVa sJns7vcDc9hhD7/rb55n5gWQLssav2mauc1WK1IrKytHb9++bdq23Uo7F4YLa8PAHuS6bnXhzydL hcLLX5496zRTjgQAACDt9o1DJ09+NJ8k3axSKlpeXp4xDCNJOxeGA+UV2KN83y86jtMQ2X7aeeHC 22cMI9tNOxcAABhunc766OzsB+8mSTdrmma8tLQ0x1E62A2UV2APi6JIzczMLCdJYphmbuPChXfO KDW6nnYuAAAw3JKkm52dff+9KFofFRHxPK9SLpdraefCYKO8AntcHMfm3NzcUhRFSkTE806dL5WO X0o7FwAAQKVy7s16/bNXRURs2w4ajYbDGjEeFcor0CcqlYpXq9XKIiL5/GTUaDg+a8QAACBtrdY1 5TiNImvEeNQor0AfCYLAdhyn0VsjbjQc37LGb6adCwAADLc43nz65MkP3+qtES8sLCxUq1U37VwY LJRXoM/cv0ZcKExf8bzT55nCAgCANCVJN+u6rTfq9YvHRUSUUlGj0XCYwuL/wjmvQJ8xDCOZn59f zGQyEkWR+uqr7w4tLobWxMRzdycmnrubdj4AADCcRkYe//XEicPXtR6/0W7fGF9bu3VwcXFxPpPJ iNa6nXY+9D8mr0Afi+PYdBynEYahFhHJ5yeved7pc6aZ20w5GgAAGGL/nMIe6Xheray1DlOOhj5G eQUGQK1WK7uuW02SxDCMJ34ulY5fKpVe+4xVYgAAkKZ2e23ccc46cbyRE9n+IrHneRXTNOOUo6EP sTYMDICjR4+unDp16vzW1paxsvL1S+32jfHFxdB69tn9W0qNcS4sAABIhWnmNguF6asjI4//2ums j0bRN4fr9Xo5k8mIUqozMjLyS9oZ0T+YvAIDJgxD7bputbdKbJq5jWo13yoWj11JORoAABhiSdLN Viofn/b9y9MiIoaxf6tcrnilUqnO2bB4EJRXYED5vl90Xbcax7EpImKaz/xQrb7xCSUWAACkKYru jFUqH58Ow7VxEUosHhzlFRhw/1Zii8WXr5ZKr1/knVgAAJCWMFybcN1WfmeJte25pWq16vJOLP4N 5RUYEr7vF+v1eql3PqyISLF47HKhMH1V64m1NLMBAIDhFYZrE/X6xdeCYHWyd09rq10oFH3btgOm seihvAJD5v53YkX+msYWCscum2ZuI8V4AABgSMXxRs51W/kgWJ1Kkm5W5K9pbD6fb9m2HaSdEemi vAJDKo5js9lsFnzfL/ZWikVElDJjrQ/dzOenVpnIAgCA3ZYk3WwQrE41m5ePheHaRO/+dpG1A8vS IRPZ4UR5BSBhGOpms1kIgsBOksTo3TeMJ3+y7clrR46Mris1docyCwAAdlMcb+Tq9U9fD4LVqd5Z sT1av/KF1rOfW5bVVkpFlNnBR3kF8DdhGOpWq5UPgsDeOZHt0frF60o9//2BA7kNpcbuGEa2q9TY nRSiAgCAIRLHG7kgWJ1qtVandk5ke0xzdF3rmWXTPHjLsqy2iIjWOtz1oHhkKK8A/lMcx2YQBHan 0zkSRZHa+bGn+xnGkz8pdfCWyL1M79qe1N7LiPy+bzdzAwAwGB77Le0Ee1WSdLNh+O0LUXT7wIP8 X+vpKyL7ft/+lbmn1OQ1w3jqR8uy2hTc/kF5BfBQwjDU7XbbiuPY3HmlnQsAAOBheZ5XKZfLtbRz 4MH8AdoUUsHnf0QVAAAAAElFTkSuQmCC "
       preserveAspectRatio="none"
       x="5.8348441" />
    <text
       xml:space="preserve"
       style="font-style:normal;font-weight:normal;font-size:40px;line-height:1000%;font-family:Sans;letter-spacing:0px;word-spacing:0px;fill:#000000;fill-opacity:1;stroke:none;stroke-width:1px;stroke-linecap:butt;stroke-linejoin:miter;stroke-opacity:1"
       x="316.94568"
       y="948.83282"
       id="text4179"
       sodipodi:linespacing="1000%"><tspan
         sodipodi:role="line"
         id="tspan4181"
         x="316.94568"
         y="948.83282"
         style="font-size:45px">EuroTrough Simulator</tspan></text>
  </g>
</svg>
